{
  "release_date": "2024-12-08T15:41:23.672Z",
  "language": "cs",
  "name": "Algorithm",
  "type": "1st_year",
  "about": "žijte se do role algoritmu fiktivní sociální sítě. Plňte instrukce, sledujte stopy a dedukujte pravdu o životě uživatele. Pro vyšší dobro. Nebo pro spokojenost inzerentů. Soukromí je přežitek. Nahlédnout můžete do “soukromých” zpráv či sledování polohy. Nebo se raději vzbouříte a budete svého stvořitele sabotovat?",
  "authors": [
    {
      "person": "jonas-holub"
    }
  ],
  "screenshots": [
    {
      "description": "1",
      "image": "/images/uploads/hlavni.png"
    },
    {
      "description": "2",
      "image": "/images/uploads/1.png"
    },
    {
      "description": "3",
      "image": "/images/uploads/3.png"
    },
    {
      "description": "4",
      "image": "/images/uploads/2.jpg"
    },
    {
      "description": "5",
      "image": "/images/uploads/5.png"
    },
    {
      "description": "6",
      "image": "/images/uploads/6.png"
    }
  ],
  "main_image": "/images/uploads/hlavni.png"
}