{
  "steam_url": "https://store.steampowered.com/app/3230290/BlightFog/",
  "release_date": "2024-12-14T15:22:41.266Z",
  "authors": [
    {
      "person": "miroslav-prokop"
    }
  ],
  "name": "BlightFog",
  "about": "BlightFog je krátké narativní RPG o cestě napříč postapokalyptickým světem obývaným antropomorfními zvířaty. Po cestě se budete muset vypořádat s různými překážkami a jinými přeživšími, kteří s vámi často nemají ty nejlepší úmysly. Budete činit rozhodnutí, která výrazně ovlivní děj a povedou k různým koncům příběhu. Dokážete přežít v tomto nehostinném světě, nebo se z vás stane maniak co odmítá nosit oblečení a konzumuje palivo?",
  "screenshots": [
    {
      "description": "1",
      "image": "/images/uploads/bf_scr_01.png"
    },
    {
      "description": "2",
      "image": "/images/uploads/bf_scr_02.png"
    },
    {
      "image": "/images/uploads/bf_scr_03.png",
      "description": "3"
    },
    {
      "description": "4",
      "image": "/images/uploads/bf_scr_04.png"
    },
    {
      "description": "5",
      "image": "/images/uploads/bf_scr_05.png"
    }
  ],
  "main_image": "/images/uploads/bf_cover_art.png",
  "language": "cs",
  "type": "1st_year",
  "external_url": "https://zakroutil.itch.io/blightfog"
}