{
  "release_date": "2021-12-07T09:43:08.656Z",
  "language": "cs",
  "name": "Buřtobraní",
  "type": "other",
  "about": "**Buřtobraní** je hra pro dva hráče, kde musíš opéct všechny své buřty, aniž by se spálily. Dej ale pozor, ať není tvůj soupeř rychlejší! Shoď mu jeho dobrotu z klacku, aby se nenabaštil dřív než ty!\n\nHra byla vytvořena pro FIKMAT game jam v Unity. Téma jamu bylo *oheň* a hra byla navržena pro arkádový automat.",
  "main_image": "/images/uploads/burtobrani.png",
  "external_url": "https://emilyrook.itch.io/burtobrani",
  "authors": [
    {
      "person": "petra-emmerova"
    },
    {
      "person": "martin-hromadka"
    }
  ]
}