{
  "release_date": "2021-11-07T16:42:12+00:00",
  "authors": [
    {
      "person": "katerina-hanackova"
    },
    {
      "person": "petra-emmerova"
    },
    {
      "person": "vendula-buresova"
    }
  ],
  "name": "I Come In Peace",
  "about": "I Come In Peace",
  "screenshots": [],
  "main_image": "/images/uploads/i_come_in_peace_thumbnail.png",
  "language": "cs",
  "type": "game_jam",
  "external_url": "https://emilyrook.itch.io/i-come-in-peace"
}