{
  "release_date": "2021-11-07T16:42:12+00:00",
  "authors": [
    {
      "person": "krystof-jezek"
    },
    {
      "person": "martin-hromadka"
    },
    {
      "person": "josef-smid"
    }
  ],
  "name": "MISO",
  "about": "MISO",
  "screenshots": [],
  "main_image": "/images/uploads/miso.png",
  "language": "cs",
  "type": "game_jam",
  "external_url": "https://buldozer.itch.io/miso"
}