{
  "release_date": "2024-12-14T15:35:37.713Z",
  "authors": [
    {
      "person": "emma-valisova"
    }
  ],
  "name": "my monstrous body",
  "about": "my monstrous body zkoumá ženství, dospívání a pubertu skrz abjekci a body horor v intimním prostředí sdílené domácí koupelny. Prozkoumejte a starejte se o sebe a svůj posvátný prostor, zatímco zažíváte kouzlo ženského dospívání!",
  "screenshots": [
    {
      "description": "1",
      "image": "/images/uploads/monstrousbodymain.png"
    },
    {
      "description": "2",
      "image": "/images/uploads/monstrousbody2.png"
    },
    {
      "description": "3",
      "image": "/images/uploads/monstrousbody3.png"
    },
    {
      "description": "4",
      "image": "/images/uploads/monstrousbody4.png"
    },
    {
      "description": "5",
      "image": "/images/uploads/monstorubody5.png"
    }
  ],
  "main_image": "/images/uploads/monstrousbodymain.png",
  "language": "cs",
  "type": "1st_year",
  "external_url": "https://churchofp.itch.io/mymonstrousbody"
}