{
  "release_date": "2023-06-30T10:07:59.073Z",
  "language": "cs",
  "name": "Pan Mňau ",
  "type": "1st_year",
  "about": "Top-down 2D procedurálně generovaná rogue-like survival hra z prostředí českého lesa.\n\nChci dotýkat se kůry, trávy, květin, špinavý hlíny a slyšet sluneční svit na kůži znít.\n\n\nCítit studený vítr na tváři a jen tak si hrát s ovcemi na louce mezi horami.\n\n\nPotkat na magickém paloučku pod měsíčním srpem hejno světlušek.\n\n\nI utíkat v silném dešti po stromech před nebezpečným medvědem, co dělá to stejný.\n\n\nA stejnýho medvěda později nahánět s čerstvě nabroušenými zuby.\n\n\nPřeplavat silnou širokou řeku, co taky jen hledá cestu, a ulovit v ní štiku,\n\n\nnebo se jen proudem unášet, jíst čerstvé plody lesa.\n\n\nStát se na chvíli zvířetem.\n\n\nJen tak svobodně jít.\n\n\nŽít, nemyslet, ale žít!\n\n\nTaková je cesta Pana Mňau.\n\n\nStrastiplná i plná krás.\n\n\nTak se na ní taky vydej.",
  "main_image": "/images/uploads/screenshot1_pan-mnau.png",
  "authors": [
    {
      "person": "vit-paulik"
    }
  ],
  "screenshots": [
    {
      "description": "1",
      "image": "/images/uploads/screenshot2_pan-mnau.png"
    },
    {
      "description": "2",
      "image": "/images/uploads/screenshot3_pan-mnau.png"
    },
    {
      "description": "3",
      "image": "/images/uploads/screenshot4_pan-mnau.png"
    },
    {
      "description": "4",
      "image": "/images/uploads/screenshot5_pan-mnau.png"
    },
    {
      "description": "5",
      "image": "/images/uploads/screenshot6_pan-mnau.png"
    }
  ]
}