{
  "release_date": "2024-12-08T15:45:37.025Z",
  "language": "cs",
  "name": "Reconciliation",
  "type": "1st_year",
  "about": "Reconciliation je hrou o smíření. Můžete ji hledat v náznacích příběhu, ale pravděpodobněji vyvstane při nevyhnutelné prohře a opakovaným pokusům o poražení nepřátel. Stejně jako v životě a smrti je totiž nejdůležitější se nevzdát.",
  "authors": [
    {
      "person": "viktor-boburka"
    }
  ],
  "screenshots": [
    {
      "description": "1",
      "image": "/images/uploads/reconciliation_hlavni.png"
    },
    {
      "description": "2",
      "image": "/images/uploads/reconciliation_1.png"
    },
    {
      "description": "3",
      "image": "/images/uploads/reconciliation_2.png"
    },
    {
      "description": "4",
      "image": "/images/uploads/reconciliation_3.png"
    },
    {
      "description": "5",
      "image": "/images/uploads/reconciliation_4.png"
    }
  ],
  "main_image": "/images/uploads/reconciliation_hlavni.png"
}