{
  "release_date": "2022-06-28T08:33:37.606Z",
  "authors": [
    {
      "person": "vendula-buresova"
    }
  ],
  "name": "There'll Be Gold",
  "about": "Vstupte do role mladého zlatokopa a odcestujte se svým společníkem daleko do divočiny, kde jsou lesy plné zvěře a řeky se třpytí zlatem. \n\nThere’ll Be Gold je weird west hororový walking simulátor. Vžijte se do vyprávění svého průvodce a objevte tak, co za lidi byli jeho předchozí společníci a kdo leží v opuštěném hrobě uprostřed divočiny",
  "screenshots": [
    {
      "description": "1",
      "image": "/images/uploads/02.png"
    },
    {
      "description": "2",
      "image": "/images/uploads/03.png"
    },
    {
      "description": "3",
      "image": "/images/uploads/04.png"
    },
    {
      "description": "4",
      "image": "/images/uploads/05.png"
    },
    {
      "description": "5",
      "image": "/images/uploads/06.png"
    },
    {
      "description": "6",
      "image": "/images/uploads/07.png"
    },
    {
      "image": "/images/uploads/08.png",
      "description": "7"
    }
  ],
  "main_image": "/images/uploads/01.png",
  "language": "cs",
  "type": "1st_year",
  "external_url": "https://bunnypew.itch.io/therell-be-gold"
}