{
  "release_date": "2023-06-30T10:17:29.741Z",
  "language": "cs",
  "name": "This Light(house) is not a Home",
  "type": "1st_year",
  "about": "This Light(house) is not a home si hraje s retrospektivou a vypráví příběh o zamilovaném páru, který žil na izolovaném místě skoro se rozpadajícího majáku, dokud je nepotkal smutný osud v podobě smrti jednoho z nich. Němý protagonista se každý den probouzí do rutinní práce, kde se musí starat o maják, zatímco se snaží vypořádat s pocitem viny ze smrti své snoubenky. Až poté, co ho z této rutinní činnosti vytrhne nečekanná situace, a on se musí potavit svému žalu, si uvědomuje, že tato sebetrýzeň není způsob, jak žít.",
  "main_image": "/images/uploads/thislighthouse_1.png",
  "authors": [
    {
      "person": "ondrej-dolejs"
    }
  ],
  "screenshots": [
    {
      "description": "1",
      "image": "/images/uploads/thislighthouse_2.png"
    },
    {
      "description": "2",
      "image": "/images/uploads/thislighthouse_3.png"
    },
    {
      "description": "3",
      "image": "/images/uploads/thislighthouse_4.png"
    },
    {
      "description": "4",
      "image": "/images/uploads/thislighthouse_5.png"
    },
    {
      "description": "5",
      "image": "/images/uploads/thislighthouse_6_hlavni.png"
    }
  ]
}