{
  "release_date": "2022-03-21T09:55:55.100Z",
  "authors": [
    {
      "person": "tereza-kotesovcova"
    }
  ],
  "name": "War on Wardrobes",
  "about": "Z jednoduchého úkolu pořídit si konvičku na kávu se stane souboj o přežití, když se rozhodnete pro ni dojít do jednoho nejmenovaného modro-žlutého obchodního domu. Chodby jsou tam postaveny tak, aby člověk bloudil v kruzích, vystavené zboží v akci se probouzí k životu, skáče na vás a tím vás nutí si ho koupit. Můžete se ale vzbouřit, popadnout požární sekeru a bránit se proti nájezdům zlevněného zboží. A možná nakonec i získat tu konvičku.",
  "screenshots": [
    {
      "description": "1",
      "image": "/images/uploads/wow_02.png"
    },
    {
      "description": "2",
      "image": "/images/uploads/wow_03.png"
    },
    {
      "description": "3",
      "image": "/images/uploads/wow_04.png"
    },
    {
      "description": "4",
      "image": "/images/uploads/wow_05.png"
    }
  ],
  "main_image": "/images/uploads/wow_01.png",
  "language": "cs",
  "type": "1st_year",
  "external_url": "https://teterka.itch.io/wow"
}