{
    "event_date": "2025-05-22T16:28:44.684Z",
    "language": "cs",
    "title": "Termín odevzdání domácích prací",
    "description": "Do tohoto data musíte odevzdat domácí práce do přijímacího řízení."
  }
