{
  "list_priority": 1000,
  "front_page_priority": 0,
  "type": "faculty",
  "language": "cs",
  "name": "Andrej Sýkora",
  "titles_before_name": [
    "MgA."
  ],
  "position": "Lektor",
  "short_bio": "Vedoucí katedry",
  "bio": "Andrej Sýkora vyštudoval audiovizuálne umenie v Centre audiovizuálnych štúdií na pražskej FAMU. Vo svojej tvorbe často využíva webové technológie a rozhrania, javascriptové herné enginy, databázy a procedurálnu generáciu obsahu. Od roku 2008 sa profesionálne venuje programovaniu webových aplikácií a systémov.\n\n**Vyučované předměty:**\n\n* Základy programování\n* Teorie interaktivních médií\n\n**Vybrané díla:**\n\n* what a time to be alive (2017)\n* odpovede (2017)\n* všetko čo chceli, bola láska, pravda, rovnosť a nové sneakers (2018)\n* the story of your life (2019)\n\n**Webové stránky:**\n\n<https://www.andrejsykora.com>",
  "photo": "/images/uploads/andrej_sykora.jpg",
  "titles_after_name": []
}