{
  "list_priority": 100,
  "short_bio": "Herní historik",
  "titles_before_name": [
    "Mgr. et Mgr."
  ],
  "bio": "Jaroslav Švelch je herní vědec zabývající se historií, teorií a empirickým studiem počítačových her. Vystudoval lingvistiku/fonetiku a překladatelství (AJ) na FF UK a mediální studia na FSV UK, kde získal i doktorát a kde od roku 2009 přednáší. Je autorem knihy Gaming the Iron Curtain (MIT Press, 2018) o historii počítačových her v normalizačním Československu. Kromě toho například publikoval výzkum o herních monstrech, o humoru v počítačových hrách a o aktivistických hrách. V letech 2007-2008 působil jako hostující výzkumník v Gambit Game Lab na MIT, v roce 2012 byl na doktorandské stáži v Microsoft Research New England a v letech 2017-2019 byl postdokem na Univerzitě v Bergenu v Norsku. \n\n**Vyučované předměty:**\n* Digital Game Histories\n* Herní teorie 1, 2\n\n**Vybrané publikace:**\n* Švelch, J. (2018). *[Gaming the Iron Curtain: How Teenagers and Amateurs in Communist Czechoslovakia Claimed the Medium of Computer Games](http://ironcurtain.svelch.com/)*. MIT Press.\n* Švelch, J. (2020). [Should the Monster Play Fair?: Reception of Artificial Intelligence in Alien: Isolation](http://gamestudies.org/2002/articles/jaroslav_svelch). *Game Studies*, *20*(2).\n* Švelch, J. (2014). [Comedy of Contingency: Making Physical Humor in Video Game Spaces](http://ijoc.org/index.php/ijoc/article/view/2687). *International Journal of Communication*, *8*, 2530–2552.\n\n**Vybrané herní projekty:**\n* Konverze aktivistických her z let 1988-1989 pro projekt [100 studentských (r)evolucí](http://www.studenti89.usd.cas.cz/pocitacove-hry/)\n\n**Další zkušenosti v oboru:**\n* Spoluzakladatel konference Central and Eastern European Game Studies (CEEGS)",
  "position": "Přednášející, vedoucí týmu",
  "name": "Jaroslav Švelch",
  "titles_after_name": [
    "Ph.D."
  ],
  "photo": "/images/uploads/svelch_spectrum.jpg",
  "language": "cs",
  "type": "faculty",
  "front_page_priority": 998
}