{
  "list_priority": 60,
  "short_bio": "Herní vývojář",
  "titles_before_name": [
    "Ing."
  ],
  "bio": "Jaroslav Meloun je herní vývojář věnující se designu a programování her pro PC, konzole a mobilní zařízení. Vystudoval počítačovou grafiku na ČVUT. Po působení v českých herních studiích Silicon Jelly a Dreadlocks se od roku 2016 věnuje nezávislé tvorbě, např. s uznávaným italským studiem Santa Ragione. Od roku 2011 organizuje pražskou pobočku akce Global Game Jam - celosvětového víkendového maratonu v tvorbě počítačových her. Jedná se o nejdéle trvající akci tohoto typu v ČR. Kromě hojné účasti na game jamech je propaguje i formou přednášek pro širokou veřejnost.\n\n\n**Vyučované předměty:**\n\n* Dílna 3, 4\n\n**Vybrané herní projekty:**\n\n* Mimpi (Gameplay programátor, Silicon Jelly) - mobilní plošinová hra\n* Dex (Vedoucí programátor, Dreadlocks) - cyberpunk RPG hra pro PC a konzole\n* Saturnalia (Gameplay programátor, Santa Ragione) - hororová adventura pro PC a konzole\n\n**Další zkušenosti v oboru:**\n\n* Hlavní organizátor Global Game Jam Prague (2011-2020)\n* Mentor studentských projektů v rámci předmětu Vývoj počítačových her (MFF UK)",
  "position": "Lektor",
  "name": "Jaroslav Meloun",
  "photo": "/images/uploads/jaroslav_meloun.jpg",
  "language": "cs",
  "type": "faculty",
  "front_page_priority": 999
}